<svg xmlns="http://www.w3.org/2000/svg" id="face" width="30" height="30" viewBox="0 0 30 30">
    <defs>
        <style>
            .cls-1{fill:#a68866}.cls-2{fill:#fff}
        </style>
    </defs>
    <path id="Rectangle_27" d="M0 0h30v30H0z" class="cls-1" data-name="Rectangle 27"/>
    <path id="Path_2" d="M24.59 10.19a2.51 2.51 0 0 0-1.76-1.76C21.26 8 15 8 15 8s-6.26 0-7.83.41a2.56 2.56 0 0 0-1.76 1.78A26.4 26.4 0 0 0 5 15a26.31 26.31 0 0 0 .41 4.81 2.51 2.51 0 0 0 1.76 1.76C8.76 22 15 22 15 22s6.26 0 7.83-.41a2.51 2.51 0 0 0 1.76-1.76A26.4 26.4 0 0 0 25 15a25.06 25.06 0 0 0-.41-4.81zM13 18v-6l5.21 3z" class="cls-2" data-name="Path 2"/>
</svg>
